\relax 
\providecommand\hyper@newdestlabel[2]{}
\providecommand\HyperFirstAtBeginDocument{\AtBeginDocument}
\HyperFirstAtBeginDocument{\ifx\hyper@anchor\@undefined
\global\let\oldcontentsline\contentsline
\gdef\contentsline#1#2#3#4{\oldcontentsline{#1}{#2}{#3}}
\global\let\oldnewlabel\newlabel
\gdef\newlabel#1#2{\newlabelxx{#1}#2}
\gdef\newlabelxx#1#2#3#4#5#6{\oldnewlabel{#1}{{#2}{#3}}}
\AtEndDocument{\ifx\hyper@anchor\@undefined
\let\contentsline\oldcontentsline
\let\newlabel\oldnewlabel
\fi}
\fi}
\global\let\hyper@last\relax 
\gdef\HyperFirstAtBeginDocument#1{#1}
\providecommand*\HyPL@Entry[1]{}
\HyPL@Entry{0<</S/a>>}
\providecommand \oddpage@label [2]{}
\HyPL@Entry{2<</S/r>>}
\HyPL@Entry{4<</S/D>>}
\@writefile{toc}{\contentsline {chapter}{\numberline {1}Main Page}{1}{chapter.1}}
\@writefile{lof}{\addvspace {10\p@ }}
\@writefile{lot}{\addvspace {10\p@ }}
\newlabel{index}{{1}{1}{Main Page}{chapter.1}{}}
\@writefile{toc}{\contentsline {section}{\numberline {1.1}Installation}{1}{section.1.1}}
\newlabel{index_Installation}{{1.1}{1}{Installation}{section.1.1}{}}
\@writefile{toc}{\contentsline {subsection}{\numberline {1.1.1}Manjaro}{1}{subsection.1.1.1}}
\newlabel{index_Linux}{{1.1.1}{1}{Manjaro}{subsection.1.1.1}{}}
\@writefile{toc}{\contentsline {subsection}{\numberline {1.1.2}others}{1}{subsection.1.1.2}}
\newlabel{index_All}{{1.1.2}{1}{others}{subsection.1.1.2}{}}
\@writefile{toc}{\contentsline {section}{\numberline {1.2}Setup}{1}{section.1.2}}
\newlabel{index_Setup}{{1.2}{1}{Setup}{section.1.2}{}}
\@writefile{toc}{\contentsline {section}{\numberline {1.3}Snippets}{2}{section.1.3}}
\newlabel{index_Snippets}{{1.3}{2}{Snippets}{section.1.3}{}}
\@writefile{toc}{\contentsline {subsection}{\numberline {1.3.1}neovim with Vundle}{2}{subsection.1.3.1}}
\newlabel{index_Install}{{1.3.1}{2}{neovim with Vundle}{subsection.1.3.1}{}}
\@writefile{toc}{\contentsline {subsection}{\numberline {1.3.2}Snippets}{3}{subsection.1.3.2}}
\newlabel{index_Using}{{1.3.2}{3}{Snippets}{subsection.1.3.2}{}}
\@writefile{toc}{\contentsline {section}{\numberline {1.4}Examples for functions and classes in Cpp}{3}{section.1.4}}
\newlabel{index_Examples}{{1.4}{3}{Examples for functions and classes in Cpp}{section.1.4}{}}
\@writefile{toc}{\contentsline {chapter}{\numberline {2}Data Structure Index}{5}{chapter.2}}
\@writefile{lof}{\addvspace {10\p@ }}
\@writefile{lot}{\addvspace {10\p@ }}
\@writefile{toc}{\contentsline {section}{\numberline {2.1}Data Structures}{5}{section.2.1}}
\@writefile{toc}{\contentsline {chapter}{\numberline {3}File Index}{7}{chapter.3}}
\@writefile{lof}{\addvspace {10\p@ }}
\@writefile{lot}{\addvspace {10\p@ }}
\@writefile{toc}{\contentsline {section}{\numberline {3.1}File List}{7}{section.3.1}}
\@writefile{toc}{\contentsline {chapter}{\numberline {4}Data Structure Documentation}{9}{chapter.4}}
\@writefile{lof}{\addvspace {10\p@ }}
\@writefile{lot}{\addvspace {10\p@ }}
\@writefile{toc}{\contentsline {section}{\numberline {4.1}My\discretionary {\unhbox \voidb@x \hbox {\relax \fontsize  {7}{8}\selectfont  $\leftarrow \joinrel  \rhook $}}{}{}Special\discretionary {\unhbox \voidb@x \hbox {\relax \fontsize  {7}{8}\selectfont  $\leftarrow \joinrel  \rhook $}}{}{}Class Class Reference}{9}{section.4.1}}
\newlabel{classMySpecialClass}{{4.1}{9}{My\+Special\+Class Class Reference}{section.4.1}{}}
\@writefile{toc}{\contentsline {subsection}{\numberline {4.1.1}Detailed Description}{9}{subsection.4.1.1}}
\@writefile{toc}{\contentsline {subsection}{\numberline {4.1.2}Constructor \& Destructor Documentation}{9}{subsection.4.1.2}}
\newlabel{classMySpecialClass_abe151d5bbac2ef7f4eafa3f837e31c07}{{4.1.2}{9}{Constructor \& Destructor Documentation}{subsection.4.1.2}{}}
\@writefile{toc}{\contentsline {subsubsection}{\numberline {4.1.2.1}My\discretionary {\unhbox \voidb@x \hbox {\relax \fontsize  {7}{8}\selectfont  $\leftarrow \joinrel  \rhook $}}{}{}Special\discretionary {\unhbox \voidb@x \hbox {\relax \fontsize  {7}{8}\selectfont  $\leftarrow \joinrel  \rhook $}}{}{}Class()}{9}{subsubsection.4.1.2.1}}
\newlabel{classMySpecialClass_a398a9b14cd7756a33cfcb033ba53e4a5}{{4.1.2.1}{9}{\texorpdfstring {My\+Special\+Class()}{MySpecialClass()}}{subsubsection.4.1.2.1}{}}
\gdef \LT@i {\LT@entry 
    {3}{97.3443pt}\LT@entry 
    {3}{351.45926pt}}
\@writefile{toc}{\contentsline {subsubsection}{\numberline {4.1.2.2}$\sim $\discretionary {\unhbox \voidb@x \hbox {\relax \fontsize  {7}{8}\selectfont  $\leftarrow \joinrel  \rhook $}}{}{}My\discretionary {\unhbox \voidb@x \hbox {\relax \fontsize  {7}{8}\selectfont  $\leftarrow \joinrel  \rhook $}}{}{}Special\discretionary {\unhbox \voidb@x \hbox {\relax \fontsize  {7}{8}\selectfont  $\leftarrow \joinrel  \rhook $}}{}{}Class()}{10}{subsubsection.4.1.2.2}}
\@writefile{toc}{\contentsline {subsection}{\numberline {4.1.3}Member Function Documentation}{10}{subsection.4.1.3}}
\newlabel{classMySpecialClass_a75e93d1c57f1fc2df31e3b248a2c43e8}{{4.1.3}{10}{Member Function Documentation}{subsection.4.1.3}{}}
\@writefile{toc}{\contentsline {subsubsection}{\numberline {4.1.3.1}special\discretionary {\unhbox \voidb@x \hbox {\relax \fontsize  {7}{8}\selectfont  $\leftarrow \joinrel  \rhook $}}{}{}Member\discretionary {\unhbox \voidb@x \hbox {\relax \fontsize  {7}{8}\selectfont  $\leftarrow \joinrel  \rhook $}}{}{}Function()}{10}{subsubsection.4.1.3.1}}
\@writefile{toc}{\contentsline {chapter}{\numberline {5}File Documentation}{11}{chapter.5}}
\@writefile{lof}{\addvspace {10\p@ }}
\@writefile{lot}{\addvspace {10\p@ }}
\@writefile{toc}{\contentsline {section}{\numberline {5.1}Class.\discretionary {\unhbox \voidb@x \hbox {\relax \fontsize  {7}{8}\selectfont  $\leftarrow \joinrel  \rhook $}}{}{}cpp File Reference}{11}{section.5.1}}
\newlabel{Class_8cpp}{{5.1}{11}{Class.\+cpp File Reference}{section.5.1}{}}
\@writefile{toc}{\contentsline {section}{\numberline {5.2}Doxygen.\discretionary {\unhbox \voidb@x \hbox {\relax \fontsize  {7}{8}\selectfont  $\leftarrow \joinrel  \rhook $}}{}{}cpp File Reference}{11}{section.5.2}}
\newlabel{Doxygen_8cpp}{{5.2}{11}{Doxygen.\+cpp File Reference}{section.5.2}{}}
\@writefile{toc}{\contentsline {section}{\numberline {5.3}Function.\discretionary {\unhbox \voidb@x \hbox {\relax \fontsize  {7}{8}\selectfont  $\leftarrow \joinrel  \rhook $}}{}{}cpp File Reference}{11}{section.5.3}}
\newlabel{Function_8cpp}{{5.3}{11}{Function.\+cpp File Reference}{section.5.3}{}}
\@writefile{toc}{\contentsline {subsection}{\numberline {5.3.1}Function Documentation}{11}{subsection.5.3.1}}
\newlabel{Function_8cpp_ae3ef206cb8048920d84ed311dd99c97a}{{5.3.1}{11}{Function Documentation}{subsection.5.3.1}{}}
\@writefile{toc}{\contentsline {subsubsection}{\numberline {5.3.1.1}Pretty\discretionary {\unhbox \voidb@x \hbox {\relax \fontsize  {7}{8}\selectfont  $\leftarrow \joinrel  \rhook $}}{}{}\_\discretionary {\unhbox \voidb@x \hbox {\relax \fontsize  {7}{8}\selectfont  $\leftarrow \joinrel  \rhook $}}{}{}print()}{11}{subsubsection.5.3.1.1}}
\newlabel{Function_8cpp_aaa967f07b2b60a44f02bcc9d34672ec9}{{5.3.1.1}{11}{\texorpdfstring {Pretty\+\_\+print()}{Pretty\_print()}}{subsubsection.5.3.1.1}{}}
\gdef \LT@ii {\LT@entry 
    {3}{50.68045pt}\LT@entry 
    {3}{270.95563pt}}
\@writefile{toc}{\contentsline {subsubsection}{\numberline {5.3.1.2}Ugly\discretionary {\unhbox \voidb@x \hbox {\relax \fontsize  {7}{8}\selectfont  $\leftarrow \joinrel  \rhook $}}{}{}\_\discretionary {\unhbox \voidb@x \hbox {\relax \fontsize  {7}{8}\selectfont  $\leftarrow \joinrel  \rhook $}}{}{}print()}{12}{subsubsection.5.3.1.2}}
